Chapter 2 Handling Data with the Tidyverse | Welcome!
…
The get_help() command is especially valuable because it tells you which package (of the many tidyverse packages) a particular command comes from. For example, you can see the read_csv() command is from the readr package when you inspect the introverse help above.

2.5 Basic tidyverse commands

If you inspect the Files tab on the lower-right panel in R Studio you will see the file data_okcupid.csv. The code below loads that file. Recall you should type this code into the R Console.

library(tidyverse)
okcupid_profiles <- read_csv("data_okcupid.csv")

You can see the first few rows of the data using the print() command. Each row presents a person whereas each column represents a variable. If you have a large number of columns you will only see the first several columns with this approach to viewing your data.

print(okcupid_profiles)

## # A tibble: 59,946 × 6
##      age diet              height pets          sex   status
##    <dbl> <chr>              <dbl> <chr>         <chr> <chr> 
##  1    22 strictly anything     75 likes dogs a… m     single
##  2    35 mostly other          70 likes dogs a… m     single
##  3    38 anything              68 has cats      m     avail…
##  4    23 vegetarian            71 likes cats    m     single
##  5    29 <NA>                  66 likes dogs a… m     single
##  6    29 mostly anything       67 likes cats    m     single
##  7    32 strictly anything     65 likes dogs a… f     single
##  8    31 mostly anything       65 likes dogs a… f     single
##  9    24 strictly anything     67 likes dogs a… f     single
## 10    37 mostly anything       65 likes dogs a… m     single
## # … with 59,936 more rows
…
The glimpse() command is useful because it quickly allows you to see all of the columns. Moreover, it allows you to see the type for each column. Types were briefly discussed in the last chapter. Notice in the output beside each column name that some columns are labeled “dbl” which is short for double – a type of numeric column. Other columns are labeled “chr” which is short for character - meaning the columns contain characters. These designations will become important in the next chapter as we prepare data for analysis.

2.5.1 select()

The select() command allows you to obtain a subset of the columns in your data. The commands below can be used to obtain the age and height columns. You can read the command as: take the okcupid_profiles data and then select the age and height columns. The “%>%” symbol can be read as “and then”. You can see that this code prints out the data with just the age and height columns. Remember, use SHIFT-ENTER or SHIFT-RETURN to move to the next line in the block of code.

okcupid_profiles %>% 
  select(age, height)

## # A tibble: 59,946 × 2
##      age height
##    <dbl>  <dbl>
##  1    22     75
##  2    35     70
##  3    38     68
##  4    23     71
##  5    29     66
##  6    29     67
##  7    32     65
##  8    31     65
##  9    24     67
## 10    37     65
## # … with 59,936 more rows
…
## Rows: 59946 Columns: 6
## ── Column specification ────────────────────────────────────
## Delimiter: ","
## chr (4): diet, pets, sex, status
## dbl (2): age, height
## 
## ℹ Use `spec()` to retrieve the full column specification for this data.
## ℹ Specify the column types or set `show_col_types = FALSE` to quiet this message.

The tibble is modern version of the data frame. Notice that when you print a tibble it DOES show you the number of rows and columns. As well, it shows you the type of data in each column. Importantly, the tibble only provides the first few rows of output so it doesn’t fill your screen.

print(my_tibble)

## # A tibble: 59,946 × 6
##      age diet              height pets          sex   status
##    <dbl> <chr>              <dbl> <chr>         <chr> <chr> 
##  1    22 strictly anything     75 likes dogs a… m     single
##  2    35 mostly other          70 likes dogs a… m     single
##  3    38 anything              68 has cats      m     avail…
##  4    23 vegetarian            71 likes cats    m     single
##  5    29 <NA>                  66 likes dogs a… m     single
##  6    29 mostly anything       67 likes cats    m     single
##  7    32 strictly anything     65 likes dogs a… f     single
##  8    31 mostly anything       65 likes dogs a… f     single
##  9    24 strictly anything     67 likes dogs a… f     single
## 10    37 mostly anything       65 likes dogs a… m     single
## # … with 59,936 more rows
…
