Chapter 1 Week 1 Friday Workshop | Welcome!
…
There many ways of viewing the actual data you loaded. A few of these are illustrated now.

1.10.1 view(): See a spreadsheet view of your data

You can inspect your data in a spreadsheet view by using the view command. Do NOT add this command to your script file – EVER. Adding it to the script can cause substantial problems. Type this command in the Console.

view(okcupid_profiles)

1.10.2 print(): See you data in the Console

You can inspect the first few rows of your data with the print() command. It is OK to add a print command to your script. Try the print() command below in the Console:

print(okcupid_profiles)

## # A tibble: 59,946 × 6
##      age diet              height pets         sex   status 
##    <dbl> <chr>              <dbl> <chr>        <chr> <chr>  
##  1    22 strictly anything     75 likes dogs … m     single 
##  2    35 mostly other          70 likes dogs … m     single 
##  3    38 anything              68 has cats     m     availa…
##  4    23 vegetarian            71 likes cats   m     single 
##  5    29 <NA>                  66 likes dogs … m     single 
##  6    29 mostly anything       67 likes cats   m     single 
##  7    32 strictly anything     65 likes dogs … f     single 
##  8    31 mostly anything       65 likes dogs … f     single 
##  9    24 strictly anything     67 likes dogs … f     single 
## 10    37 mostly anything       65 likes dogs … m     single 
## # … with 59,936 more rows
…
